ESS-330 Lab 8
…
Here, we see how the the number of trees affect various different metrics of model performance. The number of trees appears to have some effect on model performance, with it being much more variable at low and very high numbers of trees, but relatively stable and high performing at more central values, especially between 1000-1500 trees. The minimal node size has a similar, but much clearer effect. At low minimal node sizes and very high node sizes, model performance drops substantially. Around the middle between 10 and 25 as the minimal node size, the model performs best.

6. Check the skill of the tuned model

Code

model_params %>% 
  collect_metrics() %>%
  filter(.metric=="mae") %>% 
  arrange((mean))

# A tibble: 25 × 8
   trees min_n .metric .estimator  mean     n std_err .config              
   <int> <int> <chr>   <chr>      <dbl> <int>   <dbl> <chr>                
 1   184    14 mae     standard   0.326    10  0.0184 Preprocessor1_Model11
 2   845    21 mae     standard   0.328    10  0.0188 Preprocessor1_Model09
 3  1422    17 mae     standard   0.329    10  0.0190 Preprocessor1_Model15
 4   507    12 mae     standard   0.329    10  0.0186 Preprocessor1_Model19
 5   643    19 mae     standard   0.329    10  0.0193 Preprocessor1_Model10
 6  1960    13 mae     standard   0.330    10  0.0190 Preprocessor1_Model17
 7  1261    11 mae     standard   0.330    10  0.0189 Preprocessor1_Model05
 8  1744    18 mae     standard   0.330    10  0.0189 Preprocessor1_Model06
 9  1825     9 mae     standard   0.330    10  0.0187 Preprocessor1_Model08
10  1091    23 mae     standard   0.331    10  0.0193 Preprocessor1_Model12
# ℹ 15 more rows
…
